<?xml version="1.0" encoding="utf-8"?>
<!-- Generator: Adobe Illustrator 16.0.2, SVG Export Plug-In . SVG Version: 6.00 Build 0)  -->
<!DOCTYPE svg PUBLIC "-//W3C//DTD SVG 1.1//EN" "http://www.w3.org/Graphics/SVG/1.1/DTD/svg11.dtd">
<svg version="1.1" id="Слой_1" xmlns="http://www.w3.org/2000/svg" xmlns:xlink="http://www.w3.org/1999/xlink" x="0px" y="0px"
	 width="63px" height="84px" viewBox="0 0 63 84" enable-background="new 0 0 63 84" xml:space="preserve">
<g>
	<path fill-rule="evenodd" clip-rule="evenodd" fill="#707070" d="M7.99,45.1c0.2,0,0.36,0.11,0.48,0.34
		c0.12,0.23,0.22,0.53,0.28,0.91c0.07,0.39,0.12,0.85,0.14,1.39c0.02,0.54,0.04,1.13,0.04,1.75c0,0.54-0.05,1.11-0.12,1.7
		c-0.45-0.55-0.81-1.2-1.08-1.95c-0.27-0.74-0.4-1.54-0.4-2.38C7.33,45.69,7.55,45.1,7.99,45.1z M14.46,51.34
		c-0.14,0.33-0.33,0.61-0.56,0.85c-0.22,0.25-0.5,0.43-0.82,0.58c-0.33,0.14-0.7,0.21-1.11,0.21h-0.4c-0.12,0-0.25-0.03-0.38-0.08
		c0.18-0.62,0.32-1.27,0.41-1.96c0.09-0.67,0.14-1.36,0.14-2.05c0-0.89-0.09-1.72-0.26-2.49c-0.17-0.75-0.41-1.41-0.72-1.97
		c-0.3-0.56-0.66-0.99-1.06-1.3c-0.42-0.32-0.84-0.48-1.3-0.48c-0.52,0-0.97,0.12-1.37,0.35c-0.39,0.24-0.71,0.56-0.97,0.96
		c-0.27,0.4-0.46,0.87-0.59,1.38c-0.13,0.53-0.2,1.08-0.2,1.66c0,1.35,0.23,2.59,0.71,3.75s1.17,2.11,2.09,2.86
		c-0.26,0.42-0.57,0.76-0.93,1.02c-0.37,0.26-0.82,0.39-1.38,0.39c-0.38,0-0.74-0.1-1.07-0.29c-0.34-0.19-0.63-0.48-0.9-0.87
		c-0.26-0.4-0.46-0.89-0.6-1.47c-0.16-0.58-0.22-1.26-0.22-2.05c0-0.91,0.05-1.7,0.18-2.35c0.13-0.66,0.29-1.2,0.47-1.66
		C3.81,45.87,4,45.5,4.21,45.19l0.54-0.8c0.25-0.15,0.4-0.38,0.45-0.67c0.04-0.29,0.02-0.57-0.08-0.86
		c-0.1-0.28-0.25-0.53-0.46-0.74c-0.2-0.21-0.43-0.32-0.68-0.32c-0.22,0-0.56,0.21-0.99,0.6c-0.44,0.39-0.88,0.97-1.32,1.73
		c-0.44,0.76-0.83,1.68-1.17,2.76S0,49.19,0,50.56c0,0.93,0.11,1.82,0.33,2.65c0.21,0.83,0.56,1.57,1.04,2.2
		c0.47,0.64,1.05,1.13,1.77,1.51c0.71,0.37,1.56,0.55,2.55,0.55c1.1,0,2.05-0.24,2.81-0.73c0.76-0.49,1.38-1.13,1.87-1.94
		c0.28,0.1,0.59,0.16,0.9,0.21c0.31,0.04,0.65,0.05,1,0.05c0.66,0,1.25-0.1,1.79-0.29c0.53-0.19,1.11-4.93,0.95-4.83
		c-0.15,0.1-0.22,0.21-0.25,0.36C14.7,50.67,14.59,51.02,14.46,51.34z"/>
	<path fill-rule="evenodd" clip-rule="evenodd" fill="#707070" d="M12.46,56.89c0,0.3,0.04,0.54,0.14,0.72
		c0.1,0.17,0.22,0.31,0.37,0.41c0.16,0.09,0.33,0.16,0.51,0.21c0.17,0.02,0.35,0.05,0.51,0.05c0.23,0,0.4-0.05,0.52-0.13
		c0.12-0.09,0.21-0.21,0.27-0.33c0.05-0.13,0.09-0.27,0.09-0.43l0.01-0.46v-4.6c0.06-0.61,0.21-1.24,0.46-1.86
		c0.25-0.61,0.53-1.18,0.85-1.67c0.33-0.49,0.66-0.88,1-1.19c0.33-0.31,0.6-0.46,0.84-0.46c0.15,0,0.27,0.05,0.36,0.14
		c0.09,0.1,0.16,0.23,0.21,0.39c0.04,0.17,0.07,0.36,0.08,0.57c0.01,0.22,0.02,0.45,0.02,0.69v6.39c0,0.4,0.05,0.78,0.18,1.13
		c0.12,0.36,0.3,0.68,0.53,0.94c0.24,0.25,0.51,0.47,0.84,0.64c0.33,0.15,0.71,0.24,1.14,0.24c0.69,0,1.29-0.17,1.8-0.48
		c0.51-0.32,0.94-0.72,1.32-1.2c0.38-0.47,0.68-1,0.91-1.58c0.24-0.57,0.41-1.12,0.56-1.65c0.01-0.05,0.03-0.09,0.03-0.13v-0.08
		c0-0.15-0.03-0.29-0.1-0.45c-0.08-0.16-0.17-0.3-0.27-0.42c-0.11-0.13-0.24-0.22-0.37-0.3c-0.13-0.07-0.26-0.12-0.38-0.12
		c-0.16,0-0.33,0.08-0.47,0.23s-0.25,0.39-0.3,0.71c-0.07,0.35-0.17,0.72-0.28,1.12c-0.11,0.39-0.25,0.76-0.42,1.09
		c-0.18,0.34-0.38,0.62-0.62,0.85c-0.23,0.22-0.51,0.33-0.83,0.33c-0.21,0-0.37-0.06-0.48-0.19c-0.11-0.12-0.19-0.26-0.24-0.43
		c-0.06-0.15-0.08-0.32-0.09-0.48c-0.02-0.16-0.02-0.27-0.02-0.34v-6.51c0-0.35-0.05-0.72-0.12-1.1c-0.08-0.38-0.21-0.72-0.41-1.03
		c-0.2-0.31-0.47-0.56-0.81-0.75c-0.35-0.2-0.79-0.29-1.32-0.29c-0.4,0-0.77,0.07-1.11,0.23c-0.34,0.16-0.65,0.38-0.94,0.66
		c-0.31,0.28-0.58,0.61-0.84,0.99c-0.25,0.39-0.5,0.79-0.71,1.23v-1.41c0-0.38-0.16-0.7-0.47-0.98c-0.3-0.27-0.72-0.41-1.25-0.41
		c-0.23,0-0.44,0.05-0.6,0.15c-0.17,0.11-0.25,0.23-0.25,0.38c0,0.11,0.02,0.23,0.07,0.37c0.05,0.14,0.08,0.35,0.08,0.64V56.89z"/>
	<path fill-rule="evenodd" clip-rule="evenodd" fill="#707070" d="M40.02,34.33c-0.23-0.14-0.41-0.33-0.54-0.56
		c-0.13-0.22-0.23-0.47-0.3-0.74c-0.07-0.28-0.1-0.56-0.1-0.84v-8.45c0-0.62-0.25-1.14-0.76-1.58c-0.5-0.44-1.17-0.67-2.03-0.67
		c-0.36,0-0.68,0.08-0.93,0.24c-0.26,0.16-0.39,0.37-0.39,0.63c0,0.09,0.01,0.18,0.02,0.27l0.06,0.31l0.08,0.43
		c0.03,0.17,0.04,0.37,0.04,0.62v7.9c-0.29,0.72-0.66,1.34-1.13,1.86c-0.47,0.52-1.05,0.78-1.76,0.78c-0.9,0-1.61-0.36-2.13-1.08
		c-0.52-0.72-0.77-1.76-0.77-3.12c0-1.84,0.25-3.43,0.77-4.78c0.52-1.34,1.18-2.45,2-3.32c0.81-0.87,1.72-1.53,2.72-1.95
		c1-0.43,1.98-0.64,2.95-0.64c0.27,0,0.52,0.02,0.78,0.05c0.25,0.04,0.49,0.05,0.73,0.05c0.24,0,0.42-0.09,0.51-0.26
		c0.09-0.17,0.14-0.47,0.14-0.91c0-0.67-0.22-1.19-0.65-1.58c-0.44-0.38-1.01-0.57-1.71-0.57c-1.57,0-3.08,0.32-4.55,0.95
		c-1.46,0.64-2.76,1.55-3.89,2.73c-1.14,1.2-2.06,2.64-2.74,4.34c-0.68,1.7-1.02,3.61-1.02,5.75c0,1.08,0.13,2.1,0.39,3.04
		c0.25,0.94,0.64,1.75,1.16,2.44s1.16,1.24,1.92,1.64c0.76,0.4,1.64,0.6,2.65,0.6c0.96,0,1.81-0.21,2.53-0.61
		c0.73-0.42,1.35-0.9,1.88-1.49c0.38,0.63,0.9,1.13,1.57,1.53c0.67,0.38,1.45,0.57,2.36,0.57c1.1,0,2.06-0.26,2.89-0.77
		c0.83-0.53,1.53-1.17,2.12-1.95c0.58-0.78,1.07-1.64,1.44-2.58c0.37-0.93,0.67-1.82,0.89-2.68c0.03-0.09,0.05-0.16,0.05-0.22v-0.12
		c0-0.25-0.06-0.5-0.16-0.75c-0.11-0.25-0.26-0.48-0.43-0.68c-0.18-0.2-0.37-0.36-0.58-0.49c-0.2-0.11-0.4-0.18-0.61-0.18
		c-0.26,0-0.51,0.13-0.74,0.36c-0.22,0.24-0.4,0.63-0.51,1.16c-0.12,0.57-0.27,1.18-0.44,1.82c-0.18,0.64-0.4,1.24-0.68,1.78
		c-0.28,0.55-0.6,1.01-0.97,1.38c-0.38,0.36-0.83,0.54-1.35,0.54C40.5,34.53,40.24,34.47,40.02,34.33z"/>
	<path fill-rule="evenodd" clip-rule="evenodd" fill="#707070" d="M58.49,37.14c0.81-0.53,1.52-1.17,2.1-1.95
		c0.59-0.78,1.07-1.64,1.44-2.58c0.38-0.93,0.68-1.82,0.92-2.68c0-0.04,0-0.09,0.02-0.14S63,29.67,63,29.59
		c0-0.25-0.06-0.5-0.17-0.75c-0.1-0.25-0.25-0.48-0.42-0.68c-0.18-0.2-0.38-0.36-0.59-0.49c-0.22-0.11-0.42-0.18-0.62-0.18
		c-0.26,0-0.5,0.13-0.73,0.36c-0.24,0.24-0.4,0.63-0.5,1.16c-0.12,0.57-0.27,1.18-0.44,1.82c-0.18,0.64-0.41,1.24-0.69,1.78
		c-0.28,0.55-0.64,1.01-1.05,1.38c-0.42,0.36-0.92,0.54-1.51,0.54c-0.35,0-0.66-0.07-0.91-0.22c-0.26-0.14-0.48-0.35-0.64-0.61
		c-0.17-0.25-0.3-0.55-0.38-0.89c-0.08-0.33-0.12-0.67-0.12-1.02c0-0.85,0.05-1.72,0.17-2.62c0.12-0.89,0.26-1.75,0.43-2.58
		c0.16-0.83,0.35-1.63,0.55-2.39c0.2-0.76,0.38-1.42,0.55-2.01c0.17-0.58,0.31-1.06,0.43-1.45c0.11-0.38,0.17-0.62,0.17-0.72
		c0.05-0.3-0.02-0.62-0.21-0.95c-0.2-0.34-0.44-0.64-0.72-0.94c-0.28-0.29-0.57-0.52-0.86-0.71c-0.29-0.19-0.51-0.28-0.66-0.28H51.4
		H51c-0.14,0-0.3-0.01-0.5-0.02l-0.74-0.06c-0.3-0.03-0.65-0.07-1.07-0.12c-0.15-0.51-0.34-0.95-0.58-1.29
		c-0.23-0.35-0.49-0.64-0.79-0.86c-0.29-0.21-0.6-0.36-0.93-0.44c-0.32-0.08-0.64-0.13-0.93-0.13c-0.34,0-0.66,0.05-0.98,0.16
		c-0.32,0.11-0.6,0.27-0.83,0.47c-0.24,0.22-0.42,0.46-0.56,0.76c-0.14,0.29-0.21,0.61-0.21,0.96c0,0.75,0.21,1.4,0.62,1.94
		c0.41,0.54,0.94,0.98,1.58,1.33L45,22.06c-0.03,0.82-0.08,1.64-0.13,2.47c-0.06,0.83-0.14,1.61-0.24,2.35
		c-0.1,0.74-0.21,1.37-0.35,1.88c-0.12,0.44-0.07,0.85,0.15,1.25c0.21,0.4,0.5,0.71,0.85,0.92c0.35,0.2,0.71,0.26,1.07,0.18
		s0.62-0.39,0.79-0.92c0.23-0.75,0.42-1.57,0.58-2.45c0.16-0.88,0.29-1.76,0.39-2.62c0.1-0.87,0.18-1.68,0.22-2.45
		s0.07-1.4,0.08-1.91h0.58h3.91c-0.84,2.22-1.48,4.26-1.92,6.1c-0.44,1.83-0.66,3.58-0.66,5.23c0,1.13,0.16,2.07,0.48,2.81
		c0.33,0.75,0.75,1.34,1.26,1.78c0.51,0.45,1.08,0.76,1.7,0.96c0.63,0.18,1.25,0.27,1.85,0.27C56.71,37.91,57.67,37.65,58.49,37.14z
		"/>
	<path fill-rule="evenodd" clip-rule="evenodd" fill="#707070" d="M44.87,61.38c-0.2,0.49-0.44,0.94-0.73,1.35
		c-0.3,0.41-0.63,0.75-1,1.02c-0.39,0.28-0.79,0.41-1.22,0.41c-0.72,0-1.23-0.24-1.55-0.74c-0.34-0.51-0.49-1.15-0.49-1.93v-2.26
		c0.08-0.07,0.24-0.34,0.47-0.79c0.23-0.45,0.49-1.04,0.79-1.77c0.29-0.71,0.59-1.53,0.91-2.47c0.32-0.92,0.61-1.89,0.88-2.9
		c0.26-1,0.48-2.03,0.66-3.07c0.17-1.05,0.26-2.05,0.26-3c0-0.36-0.01-0.77-0.01-1.22c-0.02-0.45-0.06-0.89-0.12-1.36
		c-0.07-0.46-0.17-0.9-0.31-1.35c-0.14-0.44-0.34-0.83-0.58-1.18c-0.26-0.33-0.57-0.61-0.96-0.82c-0.38-0.2-0.86-0.31-1.41-0.31
		c-0.48,0-0.92,0.13-1.34,0.37c-0.43,0.24-0.8,0.59-1.11,1.01c-0.33,0.44-0.57,0.97-0.76,1.58c-0.18,0.62-0.26,1.28-0.26,2V61.6
		c0,0.77,0.09,1.47,0.28,2.1c0.19,0.62,0.48,1.16,0.86,1.61c0.38,0.44,0.85,0.79,1.41,1.04c0.56,0.24,1.21,0.37,1.95,0.37
		c0.86,0,1.63-0.22,2.3-0.65c0.67-0.42,1.26-0.95,1.75-1.56c0.5-0.62,0.91-1.28,1.23-1.98c0.32-0.69,0.57-1.3,0.76-1.82
		c0.04-0.21,0.03-0.43-0.03-0.65c-0.07-0.22-0.18-0.42-0.31-0.6c-0.14-0.17-0.31-0.31-0.49-0.43c-0.18-0.1-0.37-0.14-0.55-0.13
		c-0.18,0.02-0.35,0.12-0.51,0.29c-0.15,0.17-0.26,0.45-0.34,0.82C45.21,60.44,45.07,60.9,44.87,61.38z M39.88,43.1
		c0-0.15,0.01-0.32,0.03-0.51c0.01-0.17,0.04-0.34,0.1-0.5c0.04-0.16,0.11-0.29,0.18-0.39c0.07-0.1,0.17-0.16,0.27-0.16
		c0.31,0,0.56,0.31,0.74,0.9c0.18,0.6,0.29,1.54,0.29,2.83c0,0.35-0.03,0.78-0.07,1.29c-0.04,0.5-0.11,1.03-0.18,1.6
		c-0.08,0.57-0.17,1.15-0.26,1.74c-0.1,0.59-0.21,1.16-0.33,1.7s-0.25,1.04-0.38,1.48c-0.12,0.45-0.26,0.82-0.39,1.08V43.1z"/>
	<path fill-rule="evenodd" clip-rule="evenodd" fill="#707070" d="M49.53,70.88c-0.16-0.36-0.23-0.81-0.23-1.33
		c0-1.02,0.16-1.88,0.49-2.57c0.33-0.7,0.76-1.32,1.31-1.88v3.63v0.7c0,0.29-0.03,0.59-0.08,0.88c-0.04,0.3-0.14,0.55-0.27,0.78
		c-0.13,0.21-0.32,0.32-0.57,0.32C49.9,71.41,49.69,71.23,49.53,70.88z M55.29,57.69c-0.51,0.87-1.07,1.65-1.67,2.33V48.11
		c0-0.41-0.16-0.75-0.48-1.05c-0.32-0.29-0.76-0.44-1.31-0.44c-0.24,0-0.45,0.06-0.61,0.16c-0.17,0.1-0.25,0.24-0.25,0.4
		c0,0.13,0.01,0.26,0.06,0.4c0.04,0.15,0.07,0.38,0.07,0.7v5.46c-0.1,0.6-0.24,1.18-0.41,1.72c-0.18,0.55-0.38,1.03-0.61,1.45
		c-0.23,0.43-0.49,0.77-0.78,1.02c-0.28,0.26-0.6,0.39-0.93,0.39c-0.49,0-0.87-0.24-1.13-0.71c-0.27-0.48-0.4-1.19-0.4-2.12
		c0-0.7,0.02-1.33,0.06-1.9c0.05-0.57,0.12-1.12,0.2-1.64s0.17-1.05,0.29-1.57l0.41-1.73c0.03-0.13,0.1-0.29,0.2-0.5
		s0.17-0.42,0.2-0.61c0.02-0.2-0.02-0.38-0.14-0.53c-0.12-0.14-0.39-0.22-0.8-0.22c-0.44,0-0.77,0.04-0.98,0.11
		c-0.21,0.08-0.37,0.18-0.46,0.3c-0.1,0.12-0.16,0.26-0.19,0.41c-0.03,0.15-0.07,0.29-0.12,0.43c-0.23,0.8-0.43,1.62-0.6,2.47
		c-0.16,0.74-0.29,1.55-0.42,2.46c-0.13,0.9-0.19,1.8-0.19,2.7c0,0.74,0.08,1.41,0.24,2.01c0.16,0.6,0.39,1.12,0.69,1.54
		c0.31,0.42,0.67,0.75,1.11,0.99c0.44,0.22,0.94,0.34,1.49,0.34c0.71,0,1.34-0.22,1.87-0.65c0.52-0.44,1-1,1.4-1.69v4.31
		c-0.56,0.49-1.08,0.98-1.58,1.47c-0.5,0.48-0.94,0.99-1.31,1.55c-0.39,0.55-0.68,1.15-0.91,1.82c-0.22,0.66-0.32,1.42-0.32,2.28
		c0,0.54,0.07,1.06,0.23,1.53c0.15,0.47,0.37,0.88,0.66,1.24c0.29,0.35,0.63,0.63,1.02,0.84c0.38,0.19,0.81,0.3,1.29,0.3
		c0.41,0,0.83-0.09,1.24-0.24c0.41-0.18,0.78-0.45,1.11-0.83c0.32-0.38,0.58-0.88,0.78-1.48c0.2-0.62,0.31-1.37,0.31-2.27v-5.86
		c0.45-0.4,0.91-0.83,1.36-1.3c0.45-0.48,0.89-1.01,1.32-1.6c0.44-0.59,0.84-1.27,1.21-2.03c0.37-0.75,0.7-1.62,0.99-2.61
		c0.01-0.06,0.03-0.13,0.03-0.19V55c0-0.17-0.04-0.33-0.11-0.49c-0.08-0.17-0.16-0.32-0.27-0.45c-0.12-0.13-0.25-0.25-0.39-0.33
		c-0.14-0.08-0.27-0.12-0.4-0.12c-0.18,0-0.34,0.08-0.46,0.25c-0.13,0.16-0.24,0.41-0.34,0.76C56.22,55.8,55.8,56.82,55.29,57.69z"
		/>
	<path fill-rule="evenodd" clip-rule="evenodd" fill="#707070" d="M32.61,46.89c-0.1-1.07-0.24-2.01-0.41-2.8
		c-0.18-0.79-0.39-1.4-0.65-1.83c-0.26-0.43-0.54-0.65-0.83-0.65c-0.21,0-0.38,0.11-0.5,0.31c-0.13,0.22-0.23,0.48-0.31,0.78
		c-0.08,0.32-0.13,0.66-0.15,1.03c-0.03,0.39-0.04,0.73-0.04,1.05v17.74c0.5-0.97,0.94-1.95,1.32-2.97
		c0.38-1.01,0.69-2.04,0.95-3.07c0.26-1.03,0.45-2.04,0.58-3.06c0.12-0.99,0.19-1.97,0.19-2.92C32.76,49.19,32.7,47.99,32.61,46.89z
		 M34.5,67.48c0.28-0.03,0.5-0.07,0.64-0.12c0.14-0.06,0.25-0.11,0.33-0.16l0.16-0.15c0.03-0.05,0.08-0.07,0.15-0.07
		c0.14,0,0.26,0.1,0.36,0.32c0.1,0.22,0.18,0.47,0.24,0.77c0.06,0.3,0.11,0.59,0.15,0.86c0.03,0.28,0.05,0.5,0.05,0.66
		c0,0.43-0.17,0.73-0.51,0.91c-0.34,0.17-0.74,0.26-1.2,0.26c-0.29,0-0.63-0.01-1.01-0.02l-1.27-0.07c-0.45-0.04-0.93-0.07-1.41-0.1
		l-1.46-0.11v11.72c0,0.5-0.2,0.92-0.6,1.28S28.17,84,27.49,84c-0.16,0-0.31-0.01-0.46-0.03c-0.16-0.02-0.3-0.05-0.44-0.09
		c-0.14-0.04-0.24-0.09-0.32-0.15s-0.12-0.12-0.12-0.2c0-0.07,0.02-0.13,0.07-0.19c0.04-0.06,0.09-0.15,0.14-0.25
		c0.04-0.09,0.09-0.23,0.14-0.41c0.04-0.18,0.07-0.41,0.07-0.7V70.22c-0.14,0-0.25-0.01-0.34-0.03c-0.1-0.02-0.18-0.02-0.25-0.02
		c-0.34-0.04-0.58-0.17-0.73-0.38c-0.14-0.21-0.46-0.94-0.46-1.14c0-0.34-0.01-0.77,0.25-1.05c0.26-0.27,1.46-0.15,1.5-0.19
		l0.03-22.63c0-0.76,0.06-1.52,0.19-2.27c0.13-0.72,0.34-1.39,0.63-1.99c0.29-0.57,0.68-1.04,1.17-1.41
		c0.48-0.35,1.09-0.53,1.83-0.53c0.82,0,1.58,0.3,2.26,0.89c0.67,0.6,1.26,1.42,1.74,2.47c0.48,1.06,0.85,2.33,1.12,3.78
		c0.26,1.47,0.4,3.06,0.4,4.78s-0.15,3.32-0.44,4.79c-0.3,1.48-0.71,2.9-1.24,4.23c-0.54,1.33-1.19,2.6-1.94,3.81
		c-0.77,1.21-1.63,2.38-2.57,3.52v0.92L34.5,67.48z"/>
	<path fill-rule="evenodd" clip-rule="evenodd" fill="#707070" d="M22.98,11.52c0.33-0.55,0.61-1.11,0.85-1.7
		c0.41-1,0.62-2.02,0.62-3.08c0-1.11-0.17-2.09-0.5-2.93c-0.34-0.84-0.79-1.54-1.37-2.11c-0.57-0.57-1.26-0.99-2.06-1.27
		C19.72,0.15,18.85,0,17.93,0c-1.7,0-3.3,0.33-4.78,0.97c-1.49,0.64-2.86,1.51-4.09,2.61c-1.24,1.1-2.34,2.38-3.31,3.86
		c-0.97,1.47-1.79,3.04-2.47,4.69c-0.67,1.66-1.19,3.37-1.53,5.12c-0.36,1.74-0.53,3.45-0.53,5.11c0,2.47,0.27,4.7,0.8,6.7
		c0.54,2,1.3,3.71,2.32,5.11c1.01,1.41,2.24,2.49,3.7,3.27c1.45,0.76,3.09,1.14,4.93,1.14c1.03,0,2-0.1,2.9-0.3
		c0.89-0.2,1.71-0.46,2.44-0.76c0.74-0.31,1.39-0.64,1.98-1c0.58-0.36,1.08-0.69,1.48-1.01c0.4-0.32,0.71-0.58,0.93-0.8l0.37-0.38
		c0.2-0.2,0.31-0.45,0.33-0.77c0.01-0.31-0.04-0.63-0.17-0.95c-0.13-0.32-0.3-0.61-0.51-0.88c-0.22-0.28-0.46-0.48-0.71-0.62
		c-0.26-0.13-0.53-0.16-0.8-0.1c-0.28,0.07-0.53,0.29-0.75,0.65c-0.03,0.02-0.21,0.19-0.54,0.51c-0.34,0.33-0.82,0.68-1.43,1.06
		c-0.62,0.37-1.37,0.72-2.24,1.03c-0.86,0.32-1.85,0.47-2.93,0.47c-1.48,0-2.74-0.34-3.75-1.03c-1.03-0.69-1.85-1.61-2.48-2.76
		c-0.62-1.15-1.08-2.47-1.36-3.96c-0.29-1.5-0.43-3.03-0.43-4.62c0-1.38,0.14-2.8,0.42-4.27c0.27-1.46,0.66-2.88,1.17-4.27
		c0.51-1.39,1.13-2.68,1.86-3.91c0.72-1.23,1.53-2.29,2.42-3.21c0.88-0.92,1.84-1.64,2.87-2.18c1.03-0.53,2.11-0.79,3.24-0.79
		c0.59,0,1.08,0.1,1.48,0.28c0.4,0.2,0.72,0.43,0.96,0.71c0.24,0.28,0.42,0.59,0.53,0.92c0.11,0.34,0.17,0.66,0.17,0.96
		c0,0.72-0.15,1.43-0.43,2.14c-0.24,0.59-0.55,1.17-0.93,1.72C19.79,11.72,21,12.66,22.98,11.52z"/>
</g>
</svg>
