<?xml version="1.0" encoding="utf-8"?>
<!-- Generator: Adobe Illustrator 16.0.2, SVG Export Plug-In . SVG Version: 6.00 Build 0)  -->
<!DOCTYPE svg PUBLIC "-//W3C//DTD SVG 1.1//EN" "http://www.w3.org/Graphics/SVG/1.1/DTD/svg11.dtd">
<svg version="1.1" id="Слой_1" xmlns="http://www.w3.org/2000/svg" xmlns:xlink="http://www.w3.org/1999/xlink" x="0px" y="0px"
	 width="981px" height="1069px" viewBox="0 0 981 1069" enable-background="new 0 0 981 1069" xml:space="preserve">
<path fill="none" stroke="#313040" stroke-width="2" stroke-linecap="round" stroke-linejoin="round" stroke-miterlimit="10" d="
	M70,561l1,18l-30-16v38l-24,62l-8,10l1,27L0,718l5,15l-4,13l16,52l-3,10l12,29l-1,9c0,0,50,37,48,36s-2,16-2,16l42,9l59,39l41,6
	l4-14l29,6l30,51l21,10l11-22l29,14l7,22l12,19l39,31l8-39l57-39l40,2l11,12c0,0,11-5,13-6s22-2,22-2s-14-14-14-15s22-5,22-5l7-13
	c0,0,2,13,4,13s27-4,27-4l16,11l14-10c0,0,35,23,33,21s-3,17-3,17l14,29l9-2l4,12l8-1l5,12l12-6l1-30l-16-28l-24-54l31-44l12-17
	l30-28l-7-9l14-4l-26-61l18,23l4-24l-5.4-10.8L730,758l17,9l3-22l-5-12l56-32l-19-9c0,0,2-32,3-30s18-14,18-14l22-16"/>
<path fill="none" stroke="#313040" stroke-width="2" stroke-linecap="round" stroke-linejoin="round" stroke-miterlimit="10" d="
	M440.66,211.979c0,2-13,9-13,9v16l-11-8l-25-3l-31-7l-9-12l-20,8c0,0,3,18,3,20s-11,2-11,2l1-7l-7-19l-16,4l-27-13l12-16
	c0,0-20-9-22-10s-20-22-20-22l-27-1c0,0,3-22,3-24s-36,11-37,13s-6-9-6-9l33-11c0,0-39,5-41,5s-4,15-4,15l-9-10l-11-20l-4-15
	l-132,146l11,8l-3,30h25c0,0-8,69-8,70s15,23,15,23l-22,25l-4,32l10,15l-13,28l15,15l19,31L70,561l138.66,28.979l219,19l4-13l12,20
	l15-2l18,12c0,0,13.149-3.75,13-5c-0.15-1.25,19,6,19,6l-21,6l-12,21l19-9l-1,12l40-27l-7,14l15,9l29-11l-1,8l14-4l4,9l-38,10
	l-15,28l11.76-12.16l-7.76,36.16l10,31l12-23l-4-12l4.93-27.41l15.07-22.59c0,0,20.43,3.4,20,4c-0.431,0.6,5.47,16.06,6,15
	c0.529-1.06-7,15-7,15v10c0,0,12.279-15.03,12-14c-0.28,1.03,7,8,7,8v23l-10,18l16,3l46-34l-2-12l34-8l3-6l-5-11l17-20l44-12l11-9
	l7-46l7,5l14-5l11,29l17,17l12-17l12-19c0,0,6,8,6,6s-8,17-8,17l-4,16l14,7l18-30l17-11l-3-17h-12c-2,0-18,9-18,9L854.56,591
	l-6.899-5.021l-13-12l-3-13l-24,2l18-12l7-14l-11-6l-35,24l-35,58l13-38l11-30l13-4l-2-14l17-10l43-19l22-16l4-20l13-16
	c0,0,12-15,12-17s-13-21-13-21l-8-4l-8,11l-9-12l-16,30c0,0-27-4-25-5s14-4,14-4l23-33l-24,5l-31-11l-22-3c0,0,15-12,15-14
	s-33-21-33-21l-31-23l6,30l-20,16l-8-7l-18,2l-4-21c0,0-4-16-5-14s-19-6-19-6s-27-20-27-18s-16,10-16,10l-29,1l12,15l-6,18l9-1
	c0,0,12,22,12,20s-19,15-19,15s22,15,22,13s14,27,14,27l13,15l-10,2l-27,34l10,9c0,0,17,37,17,35s-7,25-7,25l-22,3l-15-21
	c0,0-12-18-13-19s-5-34-4-37s-31,1-31,1l-11,11c0,0,2-13,1-15s-23-2-23-2l-8-13l-33-11l-22,4l5-12l-9-27l-7-1l-3,7l-10-9l9-39l-5-11
	l11-4l9-27l9,1l11-4l-1-6l-31-7l3-8l31,8l3-12l13,1l10-17l-17-3l-11-15l25,12l9-12c0,0-4-15-2-14s16,5,16,5l2-8h11l9-18l-14-17l10-8
	l-12-13l-19-3l-2,8l10,5l-8,8l-10,31l-12-10l1-17l-5-12l-12,13l-4-13c0,0-12-8-14-8s4-9,4-9l-4-16c0,0-11-16-12-14s-7,12-7,12
	s-6,16-6,18s18,16,18,16V211.979z"/>
<path fill="none" stroke="#DBDBED" stroke-width="2" stroke-linecap="round" stroke-linejoin="round" stroke-miterlimit="10" d="
	M892,552l-2,28c0,0,3.909,5.24,4,5c0.09-0.24,7-8,7-8l9-10c0,0-4.48-7.42-5-7c-0.521,0.42-5,5-5,5l-1,6l-3-6L892,552z"/>
<path fill="none" stroke="#DBDBED" stroke-width="2" stroke-linecap="round" stroke-linejoin="round" stroke-miterlimit="10" d="
	M823,514c-0.65,0.03,8.51-0.29,9,0c0.489,0.29,13,0,13,0s11.42,2.19,12,2c0.579-0.19-4.53,4.62-4,5c0.529,0.38-14,1-14,1l-6-5l-12,1
	C821,518,823.65,513.971,823,514z"/>
<path fill="none" stroke="#DBDBED" stroke-width="2" stroke-linecap="round" stroke-linejoin="round" stroke-miterlimit="10" d="
	M905,439c-0.771,0.5-9,9-9,9s1.13,24.56,1,24c-0.131-0.55,3,4,3,4l-2,5l3,7c0,0-2.631,7.99-3,7c-0.37-0.99,5,4,5,4l-5,5l1,8l6-1
	l-5,22l26-13c0,0,12.279-14.68,13-14c0.72,0.68,5,7,5,7l9-6l-3,17c0,0,6.539-19.67,7-19c0.46,0.67,0.779-11.51,1-11
	c0.22,0.51,8,10,8,10l2,12c0,0,1.359-12.4,2-12c0.64,0.4,6,10,6,10l5-6l-4-8l-7-6c0,0-3.091-7.39-3-8c0.09-0.61,1,13,1,13
	s-9.971-7.46-10-8c-0.03-0.54,1-10,1-10s-8.631,6.35-8,6c0.63-0.35-0.631-7.8,0-8c0.63-0.2-3-3-3-3v-9c0,0-8.73,4.32-8,4l-7,3
	c0,0,0.64,5.68,0,6l-4,2l1-6l-7,4l-5-7l-6-2l3,12c0,0-6.271-6.28-7-6c-0.73,0.28-3.971-28.64-4-28c-0.03,0.64-1.94-3.86-2-3
	C901.94,446.86,905.77,438.5,905,439z"/>
<path fill="none" stroke="#DBDBEE" stroke-width="2" stroke-linecap="round" stroke-linejoin="round" stroke-miterlimit="10" d="
	M510,262l-2,6l-1,19l2,7c0,0-8.671,8.88-8,9c0.67,0.12,16-1,16-1l3,11l17-24c0,0,24.01,8.92,24,10c-0.011,1.08-16-19-16-19
	s-23.681-11.91-24-11c-0.32,0.91-3.37,6.02-4,6C516.369,274.98,510,262,510,262z"/>
<path fill="none" stroke="#DBDBEE" stroke-width="2" stroke-linecap="round" stroke-linejoin="round" stroke-miterlimit="10" d="
	M491,113l-18,6l-7,39c0,0,19.289,4.08,20,4c0.71-0.08-1,6-1,6s-11.771-2.49-12-2c-0.23,0.49,13,10,13,10l9-1l4,6
	c0,0,23.779-3.65,24-3c0.22,0.66,23-2,23-2s-6.99-15.67-5-15c1.989,0.67,27.869,20.8,29,21c1.13,0.2,32,18,32,18s9.8,14.81,10,16
	c0.199,1.19-11,25-11,25l14,10l-33,6c0,0-4.48,12.58-4,13c0.479,0.42,6.67,9.72,7,9c0.329-0.72,13-5,13-5l6-11l17,2l10,10
	c0,0,14.609,1.99,14,2c-0.61,0.01-4,8-4,8l18,5l8-4l11,7l26-1l-42-22l40,5l-1-20l-23-11l-11-3c0,0-16.211-21.96-17-22
	c-0.79-0.04,7-7,7-7s27.039,12.96,28,13c0.96,0.05,2.729,5.14,4,5c1.27-0.14,10,0,10,0l-6-14l5-17l-11-6l-7,5l-16-11
	c0,0-14.73,0.49-14,0c0.729-0.49-18.421-4.22-20-4c-1.58,0.22-6-15-6-15l-3-17c0,0-48.891-11.09-49-12c-0.11-0.9-13.95-14.14-14-15
	c-0.051-0.86-18.171-0.41-19,0c-0.83,0.41-6,12-6,12s-9.011,8.07-8,8c1.01-0.07-4-6-4-6l3-11c0,0-8.37-11.55-8-11
	c0.369,0.55-6-8-6-8l-8,10l3,12l-10-2l5,10c0,0-4.601,6.55-4,7c0.6,0.45,8,8,8,8l-2,10l-9-1c0,0,4.619-8.57,5-8
	c0.38,0.57-12.971-13.14-12-13c0.97,0.14-2-15-2-15L491,113z"/>
<path fill="none" stroke="#DBDBEE" stroke-width="2" stroke-linecap="round" stroke-linejoin="round" stroke-miterlimit="10" d="
	M285,124l8-3c0,0-1.53-5.52-1-6c0.529-0.48,30-10,30-10l-2,10c0,0-7.32,4.4-7,5c0.319,0.6,9.279,0.64,10,1c0.72,0.36,2.239-6.03,3-6
	c0.76,0.03,9,8,9,8s-7.25,7.75-8,8s13-2,13-2l8,9c0,0-4.021,8.53-3,9c1.02,0.47,14-5,14-5v-26c0,0,9.399,9.09,10,9
	c0.6-0.09,0.89,20.54,1,21c0.109,0.46,2.369,6.44,2,7c-0.37,0.56-4.301,5.36-5,6c-0.7,0.64,25,25,25,25s-12.471-0.23-13,0
	c-0.53,0.23-6,7-6,7s7.01,5.08,7,6c-0.011,0.92-5.15,5.78-6,5c-0.851-0.78-20-8-20-8s-3.07-10.49-4-10c-0.931,0.49-6.73,3.68-7,5
	c-0.271,1.32-4.881,7.11-6,7c-1.12-0.11-6.881,1.07-13,2c-6.12,0.93-28-5-28-5l1-14c0,0-10.94-1.37-11-2
	c-0.061-0.63-7.58-14.67-8-15s15.63,1.57,18,1c2.369-0.57,16.14,1.53,18,2c1.859,0.47,4.59-2.9,5-4c0.409-1.1-14-9-14-9l-14,1
	c0,0-8.16-7.43-8-8s3-4,3-4h16c0,0,2.56-6.79,2-7c-0.561-0.21-17-3-17-3L285,124z"/>
<path fill="none" stroke="#DBDBEE" stroke-width="2" stroke-linecap="round" stroke-linejoin="round" stroke-miterlimit="10" d="
	M400,203c0.779-0.26,13.789-18.75,14-18c0.21,0.75,13,21,13,21s-6.28,5.88-7,6C419.28,212.12,399.22,203.26,400,203z"/>
<path fill="none" stroke="#DBDBEE" stroke-width="2" stroke-linecap="round" stroke-linejoin="round" stroke-miterlimit="10" d="
	M438,111c-0.461,0.22-5,7-5,7s1.75,26.3,2,27s8-8,8-8s-3.83-7.24-3-7c0.829,0.24,11,0,11,0l11-19l-13-3
	C449,108,438.46,110.781,438,111z"/>
<path fill="none" stroke="#DBDBEE" stroke-width="2" stroke-linecap="round" stroke-linejoin="round" stroke-miterlimit="10" d="
	M422,115c0,0-9.711,14.26-9,15c0.71,0.74,7,4,7,4l3,8l-1,6c0,0-4.75,4.44-5,5s-5.95,1.44-5,1c0.949-0.44-1,4-1,4l-4-1l-5-13
	c0,0-6.471-4.63-6-4c0.47,0.63-6-12-6-12l9,6l9-7l-8-14l12,3L422,115z"/>
<path fill="none" stroke="#DBDBEE" stroke-width="2" stroke-linecap="round" stroke-linejoin="round" stroke-miterlimit="10" d="
	M468,4c0.72,0,10,0,10,0l3,4c0,0,13.67-7.94,14-8c0.329-0.06-1.57,6.94-1,8c0.569,1.07,0.89,7.36,2,7c1.109-0.36,6.3-4.09,7-4
	c0.699,0.09,6.479,1.09,6,3c-0.48,1.91-1.49,5.02-2,6c-0.511,0.98-8,8-8,8l5,8l-14,3v7c0,0,18.5-0.84,18,0s-7,10-7,10
	s-16.171-4.41-17-4c-0.83,0.41-17,8-17,8l-11-2c0,0,10.55-10.61,11-10c0.449,0.61-5.601-11.94-6-12c-0.4-0.06,14.43,9.92,15,10
	c0.569,0.08,7.819-3.26,8-4c0.18-0.74,0-13,0-13l-8,9l-4-11c0,0-7.171,2.39-7,3c0.17,0.61-6-7-6-7l13-4c0,0,7.369,6.22,8,6
	c0.63-0.22,5.569-9.64,5-10c-0.57-0.36-8,1-8,1S467.28,4.01,468,4z"/>
<path fill="none" stroke="#DBDBEE" stroke-width="2" stroke-linecap="round" stroke-linejoin="round" stroke-miterlimit="10" d="
	M507,71c-0.261,0.93-3.461,7.72-3,8c0.46,0.28,4,5,4,5l-10,3l-7-5l-1,8l-24,3l-3-6l-7,7l-8-5l-4-10l2-5c0,0-3.08-8.58-4-9
	c-0.921-0.42-7,1-7,1l-9-8c0,0-1.62-5.91-1-6c0.619-0.09,12,4,12,4s0.199,4.72,1,5c0.8,0.29,10,1,10,1s3.029,8.32,3,9
	c-0.03,0.68,8.14,10.7,9,10c0.859-0.7,13-1,13-1l9-3c0,0,5-8.4,6-8s10-2,10-2S507.26,70.071,507,71z"/>
<path fill="none" stroke="#DBDBEE" stroke-width="2" stroke-linecap="round" stroke-linejoin="round" stroke-miterlimit="10" d="
	M320,73c0.67-0.81,21-12,21-12s8.89,11.04,10,12c1.109,0.96,13.199,5.49,14,5c0.8-0.49,2.42-15.54,3-16c0.579-0.46,7.02,10.01,9,12
	c1.979,1.99-4,15-4,15l-17-7c0,0-8.28,7.82-9,8c-0.721,0.18-17-1-17-1s23.89-11.27,23-11c-0.891,0.27-19-1-19-1
	S319.329,73.811,320,73z"/>
<path fill="none" stroke="#DBDBEE" stroke-width="2" stroke-linecap="round" stroke-linejoin="round" stroke-miterlimit="10" d="
	M406,63c0.359,0.82,4,10,4,10l-11-1c0,0,7.119,3.25,8,4c0.88,0.75,5,4,5,4s-8.36,6.86-7,7c1.359,0.14,11-1,11-1s3.22-11.45,3-12
	c-0.221-0.55-1-10-1-10S405.64,62.18,406,63z"/>
<path fill="none" stroke="#DBDBEE" stroke-width="2" stroke-linecap="round" stroke-linejoin="round" stroke-miterlimit="10" d="
	M576,203c0,0-7.65,9.52-7,10c0.649,0.48,7.05,7.72,7,8c-0.051,0.28,8.649-4.09,9-4c0.35,0.09,2.39-5.13,2-5
	c-0.391,0.13-4.341-7.16-4-7C583.34,205.17,575.76,202.95,576,203z"/>
<path fill="none" stroke="#DBDBEE" stroke-width="2" stroke-linecap="round" stroke-linejoin="round" stroke-miterlimit="10" d="
	M547,314c0.119,0.37-9.48,9-9,9c0.479,0-2,11-2,11s7.39-8.71,8-9c0.609-0.29,9.659-10.37,9-10C552.34,315.37,546.88,313.641,547,314
	z"/>
<path fill="none" stroke="#DBDBEE" stroke-width="2" stroke-linecap="round" stroke-linejoin="round" stroke-miterlimit="10" d="
	M572,322c0.22,0.8-1.011,10.36-1,10c0.01-0.36,6.359,4.54,6,5c-0.36,0.46,0.76-7.52,1-8c0.239-0.48,0.359-8.19,0-8
	C577.64,321.19,571.78,321.201,572,322z"/>
</svg>
