<?xml version="1.0" encoding="utf-8"?>
<!-- Generator: Adobe Illustrator 16.0.2, SVG Export Plug-In . SVG Version: 6.00 Build 0)  -->
<!DOCTYPE svg PUBLIC "-//W3C//DTD SVG 1.1//EN" "http://www.w3.org/Graphics/SVG/1.1/DTD/svg11.dtd">
<svg version="1.1" id="Слой_1" xmlns="http://www.w3.org/2000/svg" xmlns:xlink="http://www.w3.org/1999/xlink" x="0px" y="0px"
	 width="62px" height="62px" viewBox="0 0 62 62" enable-background="new 0 0 62 62" xml:space="preserve">
<path fill-rule="evenodd" clip-rule="evenodd" fill="#FFFFFF" d="M0,31C0,13.88,13.88,0,31,0s31,13.88,31,31S48.12,62,31,62
	S0,48.12,0,31z M20.28,36.4c-0.62,0-1.22,0.01-1.82,0c-2.44-0.05-3.96-1.66-3.96-4.18V19.65c0-2.46,1.56-4.13,3.93-4.14
	c6.42-0.01,12.85-0.01,19.27,0c2.32,0.01,3.86,1.63,3.9,4.01v0.77c1.04-0.28,3.01-1.54,3.98-1.8c1.76-0.48,2.91,0.42,2.92,2.3
	c0,2.78,0,7.57-0.01,10.35c0,1.84-1.14,2.76-2.87,2.32c-0.97-0.25-2.94-1.55-4.02-1.85c0,0.37,0.01,0.64,0,0.91
	c-0.06,2.21-1.56,3.81-3.73,3.87c-2.17,0.05-7.49,0.01-7.83,0.01c0,1.48-0.99,2.88-1,4.28c0,0.72,0.02,1.45-0.04,2.18
	c-0.16,2.01-1.45,3.41-3.38,3.57c-1.1,0.09-0.77,0.1-1.87-0.01c-2.08-0.2-3.38-1.76-3.4-3.95c-0.02-1.93-0.01-3.86-0.02-5.8
	C20.33,36.62,20.31,36.58,20.28,36.4z M28.06,17.38l-9.7,0.01c-1.8,0-2.02,0.23-2.03,2.08c-0.02,4.31-0.02,8.63,0,12.94
	c0,1.87,0.2,2.11,2,2.11c5.02,0.01,11.49,0.01,19.41,0c1.82,0,2.02-0.19,2.03-2.08c0.03-4.32,0.03-8.63,0-12.94
	c-0.01-1.93-0.22-2.11-2.08-2.11L28.06,17.38z M22.21,36.44c0,2.24-0.09,3.48,0.05,5.67c0.1,1.57,0.31,2.47,1.84,2.47l0.87,0.01
	c2.13-0.01,2.24-0.15,2.25-2.39c0.01-1.58,1-5.42,1-5.76H22.21z M41.6,22.2c0,3.08,0,4.09,0.02,7.1c0,0.17,0.21,0.45,0.37,0.5
	c1.04,0.33,3.09,1.63,4.14,1.89c0.48,0.12,0.57,0.33,0.57,0.33c-0.01,0.01-0.07-0.11-0.06-0.49c0.03-3.05,0.02-8.11,0-11.17
	c0-0.34,0.07-0.44,0.09-0.43c0.03,0.02-0.03,0.19-0.41,0.28C45.07,20.48,42.85,21.86,41.6,22.2z"/>
</svg>
