<?xml version="1.0" standalone="no"?>
<!-- Generator: Adobe Fireworks 10, Export SVG Extension by Aaron Beall (http://fireworks.abeall.com) . Version: 0.6.1  -->
<!DOCTYPE svg PUBLIC "-//W3C//DTD SVG 1.1//EN" "http://www.w3.org/Graphics/SVG/1.1/DTD/svg11.dtd">
<svg id="partner3-%u0421%u0442%u0440%u0430%u043D%u0438%u0446%u0430%201" viewBox="0 0 158 63" style="background-color:#ffffff00" version="1.1"
	xmlns="http://www.w3.org/2000/svg" xmlns:xlink="http://www.w3.org/1999/xlink" xml:space="preserve"
	x="0px" y="0px" width="158px" height="63px"
>
	<path d="M 20.4302 13.7444 C 9.2845 13.7444 0 18.4497 0 32.6445 C 0 43.8904 6.2454 50.9727 20.7178 50.9727 C 37.7557 50.9727 38.8472 39.8022 38.8472 39.8022 L 30.5932 39.8022 C 30.5932 39.8022 28.8224 45.8169 20.2151 45.8169 C 13.2042 45.8169 8.1635 41.1047 8.1635 34.4998 L 39.7122 34.4998 L 39.7122 30.353 C 39.7122 23.8196 35.5411 13.7444 20.4302 13.7444 ZM 20.1449 19.0405 C 26.816 19.0405 31.3654 23.1101 31.3654 29.2104 L 8.3446 29.2104 C 8.3446 22.7339 14.2844 19.0405 20.1449 19.0405 Z" fill="#e43137"/>
	<path d="M 39.7032 0 L 39.7032 43.8428 C 39.7032 46.3311 39.5266 49.8259 39.5266 49.8259 L 47.3979 49.8259 C 47.3979 49.8259 47.6832 47.3176 47.6832 45.0232 C 47.6832 45.0232 51.5714 51.0786 62.1489 51.0786 C 73.2878 51.0786 80.8557 43.3857 80.8557 32.3586 C 80.8557 22.1006 73.9059 13.8525 62.1669 13.8525 C 51.1774 13.8525 47.7602 19.759 47.7602 19.759 L 47.7602 0 L 39.7032 0 ZM 60.1357 19.2749 C 67.6991 19.2749 72.5089 24.8633 72.5089 32.3586 C 72.5089 40.3972 66.9564 45.657 60.1877 45.657 C 52.1172 45.657 47.7602 39.3833 47.7602 32.4307 C 47.7602 25.9517 51.6688 19.2749 60.1357 19.2749 Z" fill="#3465af"/>
	<path d="M 100.4209 13.7444 C 83.6569 13.7444 82.5813 22.8804 82.5813 24.3384 L 90.9236 24.3384 C 90.9236 24.3384 91.3629 19.0068 99.8456 19.0068 C 105.3574 19.0068 109.6282 21.5168 109.6282 26.3438 L 109.6282 28.0637 L 99.8456 28.0637 C 86.8589 28.0637 79.9885 31.845 79.9885 39.5183 C 79.9885 47.0698 86.3358 51.1755 94.9091 51.1755 C 106.5939 51.1755 110.3596 44.7529 110.3596 44.7529 C 110.3596 47.3064 110.5544 49.8259 110.5544 49.8259 L 117.9753 49.8259 C 117.9753 49.8259 117.6853 46.7051 117.6853 44.708 L 117.6853 27.446 C 117.6853 16.1289 108.512 13.7444 100.4209 13.7444 L 100.4209 13.7444 ZM 109.6282 33.2173 L 109.6282 35.509 C 109.6282 38.4973 107.7761 45.9248 96.8679 45.9248 C 90.8942 45.9248 88.3354 42.9592 88.3354 39.5183 C 88.3354 33.2578 96.9584 33.2173 109.6282 33.2173 L 109.6282 33.2173 Z" fill="#f2ae1b"/>
	<path d="M 113.1927 15.1777 L 122.5812 15.1777 L 136.0547 42.0376 L 149.4969 15.1777 L 158 15.1777 L 133.5164 63 L 124.5942 63 L 131.6595 49.6707 L 113.1927 15.1777 Z" fill="#85b93f"/>
</svg>