<?xml version="1.0" standalone="no"?>
<!-- Generator: Adobe Fireworks 10, Export SVG Extension by Aaron Beall (http://fireworks.abeall.com) . Version: 0.6.1  -->
<!DOCTYPE svg PUBLIC "-//W3C//DTD SVG 1.1//EN" "http://www.w3.org/Graphics/SVG/1.1/DTD/svg11.dtd">
<svg id="Untitled-%u0421%u0442%u0440%u0430%u043D%u0438%u0446%u0430%201" viewBox="0 0 188 120" style="background-color:#ffffff00" version="1.1"
	xmlns="http://www.w3.org/2000/svg" xmlns:xlink="http://www.w3.org/1999/xlink" xml:space="preserve"
	x="0px" y="0px" width="188px" height="120px"
>
	<path opacity="0.902" d="M 82.5795 33.5293 L 82.5795 82.9412 L 121.2336 58.0496 L 82.5795 33.5293 ZM 61.0383 0 L 126.9604 0 C 160.6718 0 188 26.8628 188 60 L 188 60 C 188 93.1372 160.6718 120 126.9604 120 L 61.0383 120 C 27.327 120 0 93.1372 0 60 L 0 60 C 0 26.8628 27.327 0 61.0383 0 Z" fill="#ffffff"/>
</svg>